{
    "KParts": {
        "PluginNamespace": "okular_generators"
    },
    "KPlugin": {
        "Icon": "okular",
        "MimeTypes": [
            "application/vnd.kde.okular-archive"
        ],
        "Name": "Okular",
        "Name[ar]": "اوكلار",
        "Name[az]": "Okular",
        "Name[be]": "Okular",
        "Name[bg]": "Okular",
        "Name[ca@valencia]": "Okular",
        "Name[ca]": "Okular",
        "Name[cs]": "Okular",
        "Name[eo]": "Okular",
        "Name[es]": "Okular",
        "Name[eu]": "Okular",
        "Name[fi]": "Okular",
        "Name[fr]": "Okular",
        "Name[gl]": "Okular",
        "Name[he]": "Okular",
        "Name[hu]": "Okular",
        "Name[ia]": "Okular",
        "Name[is]": "Okular",
        "Name[it]": "Okular",
        "Name[ka]": "Okular",
        "Name[ko]": "Okular",
        "Name[lt]": "Okular",
        "Name[lv]": "Okular",
        "Name[nl]": "Okular",
        "Name[nn]": "Okular",
        "Name[pa]": "ਓਕੁਲਾਰ",
        "Name[pl]": "Okular",
        "Name[pt_BR]": "Okular",
        "Name[ru]": "Okular",
        "Name[sl]": "Okular",
        "Name[sv]": "Okular",
        "Name[ta]": "ஆக்குலர்",
        "Name[tr]": "Okular",
        "Name[uk]": "Okular",
        "Name[x-test]": "xxOkularxx",
        "Name[zh_CN]": "Okular 文档查看器",
        "Name[zh_TW]": "Okular",
        "ServiceTypes": [
            "KParts/ReadOnlyPart",
            "KParts/ReadWritePart"
        ]
    }
}
